OC1001.jpg
OC1002.jpg
OC1003.jpg
OC1004.jpg
OC1005.jpg
OC1006.jpg
OC1007.jpg
OC1008.jpg
OC1009.jpg
OC1010.jpg
OC1011.jpg
OC1012.jpg
OC1013.jpg
OC1014.jpg
OC1015.jpg
OC1016.jpg
OC1018.jpg
OC1019.jpg
OC1020.jpg
OC1021.jpg
OC1022.jpg
OC1023.jpg
OC1024.jpg
OC1025.jpg
OC1026.jpg
OC1028.jpg
OC1029.jpg
OC1030.jpg
OC1031.jpg
OC1032.jpg
OC1033.jpg
OC1034.jpg
OC1035.jpg
OC1036.jpg
OC1037.jpg
OC1038.jpg
OC1039.jpg
OC1040.jpg
OC1041.jpg
OC1042.jpg
OC1043.jpg
OC1044.jpg
OC1045.jpg
OC1046.jpg
OC1047.jpg
OC1048.jpg
OC1049.jpg
OC1051.jpg
OC1052.jpg
OC1053.jpg
OC1054.jpg
OC1055.jpg
OC1059.jpg
OC1060.jpg
OC1061.jpg
OC1062.jpg
OC1063.jpg
OC1066.jpg
OC1067.jpg
OC1068.jpg
OC1069.jpg
OC1070.jpg
OC1071.jpg
OC1072.jpg
OC1073.jpg
OC1074.jpg
OC1075.jpg
OC1076.jpg
OC1077.jpg
OC1078.jpg
OC1079.jpg
OC1080.jpg
OC1081.jpg
OC1082.jpg
OC1083.jpg
OC1085.jpg
OC1086.jpg
OC1087.jpg
OC1088.jpg
OC1089.jpg
OC1090.jpg
OC1091.jpg
OC1092.jpg
OC1093.jpg
OC1094.jpg
OC1095.jpg
OC1096.jpg
OC1097.jpg
OC1098.jpg
OC1100.jpg
OC1101.jpg
OC1102.jpg
OC1103.jpg
OC1104.jpg
OC1105.jpg
OC1106.jpg
OC1107.jpg
OC1108.jpg
OC1109.jpg
OC1110.jpg
OC1111.jpg
OC1112.jpg
OC1113.jpg
OC1114.jpg
OC1115.jpg
OC1116.jpg
OC1117.jpg
OC1118.jpg
OC1119.jpg
OC1120.jpg
OC1121.jpg
OC1122.jpg
OC1123.jpg
OC1124.jpg
OC1125.jpg
OC1126.jpg
OC1127.jpg
OC1128.jpg
OC1129.jpg
OC1130.jpg
OC1131.jpg
OC1132.jpg
OC1133.jpg
OC1134.jpg
OC1135.jpg
OC1136.jpg
OC1137.jpg
OC1138.jpg
OC1139.jpg
OC1140.jpg
OC1141.jpg
OC1142.jpg
OC1144.jpg
OC1145.jpg
OC1146.jpg
OC1147.jpg
OC1148.jpg
OC1149.jpg
Thumbs.db
log.txt
