[
    "Duplicate error: 56585e905efc14e41ff8e4b8 - Sun Feb 21 2016 19:45:00 GMT+0800 (W. Australia Standard Time)",
    "Duplicate error: 566582b64167c8680b4cb9d3 - Mon Feb 22 2016 19:45:00 GMT+0800 (W. Australia Standard Time)",
    "Duplicate error: 554f505fb4972a3c163d3b3c - Thu Feb 25 2016 19:45:00 GMT+0800 (W. Australia Standard Time)"
]