[
    "Duplicate error: 56b8917eb017701007ad201a - Tue Feb 09 2016 19:00:00 GMT+0800 (W. Australia Standard Time)",
    "Duplicate error: 56584a38d60fd05005936f13 - Wed Feb 10 2016 19:00:00 GMT+0800 (W. Australia Standard Time)",
    "Duplicate error: 56b893b55fedc7e41dd0a363 - Thu Feb 11 2016 19:00:00 GMT+0800 (W. Australia Standard Time)",
    "Duplicate error: 565870808eef08482d6a3df2 - Fri Feb 12 2016 19:00:00 GMT+0800 (W. Australia Standard Time)",
    "Duplicate error: 564dc609b25bb20814b16061 - Sat Feb 13 2016 19:00:00 GMT+0800 (W. Australia Standard Time)",
    "Duplicate error: 56b8917fb017701007ad201b - Sun Feb 14 2016 19:00:00 GMT+0800 (W. Australia Standard Time)",
    "Duplicate error: 566582b64167c8680b4cb9d3 - Tue Feb 16 2016 19:00:00 GMT+0800 (W. Australia Standard Time)",
    "Duplicate error: 56585e905efc14e41ff8e4b8 - Wed Feb 17 2016 19:00:00 GMT+0800 (W. Australia Standard Time)",
    "Duplicate error: 566582b64167c8680b4cb9d4 - Thu Feb 18 2016 19:00:00 GMT+0800 (W. Australia Standard Time)",
    "Duplicate error: 5658707e8eef08482d6a3df0 - Fri Feb 19 2016 19:00:00 GMT+0800 (W. Australia Standard Time)",
    "Duplicate error: 56b89180b017701007ad201c - Sat Feb 20 2016 19:00:00 GMT+0800 (W. Australia Standard Time)",
    "Duplicate error: 56584a38d60fd05005936f13 - Sun Feb 21 2016 19:00:00 GMT+0800 (W. Australia Standard Time)"
]