| filter:query | orderBy:orderProp

<!--     <div class="col-md-2">
      <!--Sidebar content-->

      Day:
      <select ng-model="orderProp">
        <option value="Today">Today</option>
        <option value="Tomorrow">Tomorrow</option>
      </select>

      Search: <input ng-model="query">

    </div> -->


		  			//var movie1 = new movie('Paddington','G',' ','95 mins','english',['Camelot Outdoor Cinema Mosman Park', "Friday, 16 January 2015","Friday, 16 January 2015",'18:30','20:15'])
					//var movie2 = new movie('test2','G',' ','95 mins','english',['Camelot Outdoor Cinema Mosman Park', "Friday, 16 January 2015","Friday, 16 January 2015",'18:30','20:15'])
		  			//var movies = [movie1,movie2]


		  	// 		//send table to heroku. 
		  			// arg1 = {docId : allShows  , datas : results}
		  			// send2Database(arg1, function(result){
		  			// 	status.a1 = true; status.a1bdy = result
		  			// 	if (status.a2&&status.a3) {final(status)}
		  			// });


		  				// // Get CSV File
	// var file = fs.createWriteStream("results.csv");
	// var request = http.get("https://drive.google.com/open?id=0B5LHR3rS0xjHY2VqeVRqcHllUkE&authuser=0", function(response) {
 //  		response.pipe(file);

	// 	// response.on('data', function(chunk) {
	// 	//     //body += chunk;

	// 	// });
	// 	response.on('end', function() {
	// 	    // all data has been downloaded
	// 		var parser = csv.parse({delimiter: ','}, function(err, data){
	// 			if (err) { console.log(err.message)} else{
	// 		  			console.log('parser callback');
	// 		  			console.log(data.length)
	// 		  			results = data.slice(1,-628)
	// 		  			console.log(results.length)
			  			
	// 		  			// //calculate sum of each draw
	// 		  			// results.forEach(function(val,index){
	// 		  			// 	if (index = 0){ 
	// 		  			// 		val.push('sum')
	// 		  			// 	} else {
	// 		  			// 		val.push(parseInt(val[2])+
	// 		  			// 			parseInt(val[3])+
	// 		  			// 			parseInt(val[4])+
	// 		  			// 			parseInt(val[5])+
	// 		  			// 			parseInt(val[6])+
	// 		  			// 			parseInt(val[7])
	// 		  			// 			//+ parseInt(val[8])
	// 		  			// 			//+ parseInt(val[9])
	// 		  			// 			)
	// 		  			// 	}
	// 		  			// })

	// 		  			// async status
	// 		  			var status = {a1: false, a1bdy:{}, a2: false, a2bdy:{}, a3: false, a3bdy:{}}

	// 		  	// 		//send full history to database 
	// 		  	// 		arg1 = {docId : docResults  , datas : results}
	// 		  	// 		send2Database(arg1, function(result){
	// 		  	// 			status.a1 = true; status.a1bdy = result
	// 		  	// 			if (status.a2&&status.a3) {final(status)}
	// 		  	// 		});

	// 		  	// 		//***Calculate occurence
	// 					// var oc = calcOccurence(results)
	// 					// //send occrence to database
	// 					// var arg2 = {docId : docTrend, datas: oc , datas2: data[1]  }
	// 					// send2Database(arg2, function(result){
	// 		  	// 			status.a2 = true; status.a2bdy = result
	// 		  	// 			if (status.a1&&status.a3) {final(status)}
	// 		  	// 		});

	// 		  	// 		//send last result to database 
	// 		  	// 		arg3 = {docId : docLast  , datas : data[1]}
	// 		  	// 		send2Database(arg3, function(result){
	// 		  	// 			status.a3 = true; status.a3bdy = result
	// 		  	// 			if (status.a2&&status.a1) {final(status)}
	// 		  	// 		});

	// 					//**End
	// 		  		}
	// 		});
	// 				//__dirname+'/fs_read.csv'
	// 		fs.createReadStream("./results.csv").pipe(parser);
	// 	});
	//});

	//Insert new Doc:



	// Send Array to Database
	function send2Database(arg, callback){
		// arg.docId ; arg.datas

		//get rev number
		ocdb.get(arg.docId, { revs_info: true }, function(err, body) {
	 		if (!err){
 				//callback(body)
 				console.log(body._rev)
 				console.log('ok')

 				//Insert Doc.
				var obj1 = {_id: arg.docId, _rev: body._rev, data: arg.datas};
				if (arg.datas2) {obj1.data2 = arg.datas2};
			 	ocdb.insert(obj1, arg.docId, function(err, body) {
				 	if (!err) {
				 		callback('{}');
					}
				 	else {
				 		console.log('doc not find  ' + err);
				 		callback(err);
				 	}
				});

			} else {
				console.log('error with db.get : ' + err )
				callback(err);
				//res.send('{"error":"1"}');
			}
		});		
	};
	// Calculate Occurence for 1 month // 3 month // 6 months / /12 months
	function calcOccurence(arrayd){
		var res = []
		for (var i=0; i<45; i++){
			res.push({ball:i+1, m1:0, m3:0, m6:0, m12:0, m3st:0, m6st:0, m12st:0, m1x: 1, m3x: 1, m6x: 1, m12x: 1, total:0, LastDrawnWeeks:99999  })
		}
		//console.log(res[5])
		array = arrayd//.slice(1,47) not sure why this
		array.forEach(function(vals,index){
			val = vals.slice(2,10)
			//console.log ('val ' + val.length )
			val.forEach(function(unit){
				//console.log(unit + '  ' + res[unit] + '  ' + res[5])
				if (index < 5){ res[unit-1].m1 += 1} 
				if (index < 13){ res[unit-1].m3 += 1 ; if (index > 4) { res[unit-1].m3st += 1 } 	}; 
				if (index < 27){ res[unit-1].m6 += 1 ; if (index > 12) { res[unit-1].m6st += 1 }	};
				if (index < 53){ res[unit-1].m12 += 1 ;if (index > 26) { res[unit-1].m12st += 1 } 	};
				res[unit-1].total +=1

				//define last Drawn:
				if( index < res[unit-1].LastDrawnWeeks) {
					//console.log(unit + " - index: " + index)
					res[unit-1].LastDrawnWeeks = index;
				}  
			})
		});
		//console.log(array[0][0] + ' .. ' + array[0][9])
		return res 
	};

		function RemoveDuplicate(array) {
		    return array.reduce(function(accum, current) {
		        if (accum.indexOf(current) < 0) {
		            accum.push(current);
		        }
		        return accum;
		    }, []);
	}