[
    "Duplicate error: 56437a6fd64c0a1c07071aaf - Sun Jan 24 2016 19:00:00 GMT+0800 (W. Australia Standard Time)",
    "Duplicate error: 56437a6fd64c0a1c07071aaf - Sun Jan 31 2016 19:00:00 GMT+0800 (W. Australia Standard Time)"
]